Fish Catches
…
ggsave("Figures/Belgium_Catches_per_Year_scatter.jpg")

## Saving 7.5 x 4.5 in image

Looking at total count per species caught in 2006-2014

BE_Species<-BEdataframe%>%
  group_by(Species)%>%
  summarise(count=sum(count))
BE_Species

## # A tibble: 93 x 2
##    Species count
##    <fct>   <int>
##  1 ANF     33081
##  2 BIB     11799
##  3 BLL      9415
##  4 BRB        75
##  5 BSS      4705
##  6 CAA      1431
##  7 CAR         0
##  8 CLU         0
##  9 CLX         6
## 10 CNZ     12337
## #  with 83 more rows
…
